NAME,TYPE,REFERENCE
PR01,builtin,
BPR00,builtin,
VAPR00,builtin,
TAX00_VAT,builtin,
TAX01_VAT,builtin,
RND00,builtin,
TAX00_ECO_FR,builtin,
TAX01_ECO_FR,builtin,
PR00,builtin,
VDIP00,plugin,eaiws::plugin::price_profile
DIP00,plugin,eaiws::plugin::price_profile
DIP10,plugin,eaiws::plugin::price_profile
ASDIP01,plugin,eaiws::plugin::price_profile
ASDIP00,plugin,eaiws::plugin::price_profile
HWXXLDIP01,plugin,eaiws::plugin::price_profile
HWXXLADIP01,plugin,eaiws::plugin::price_profile
HWXXLADIP02,plugin,eaiws::plugin::price_profile
HSD01,plugin,eaiws::plugin::price_profile
HSD02,plugin,eaiws::plugin::price_profile
HSD03,plugin,eaiws::plugin::price_profile
HSD04,plugin,eaiws::plugin::price_profile
HSDC01,plugin,eaiws::plugin::price_profile
HSDC02,plugin,eaiws::plugin::price_profile
HSDC03,plugin,eaiws::plugin::price_profile
BPR01,builtin,
VAPR01,builtin,