NAME,LEVEL,COUNTER,INS_MODE,MAX_INS,LINE_TYPE,COND_TYPE,DESCRIPTION,TEXT_PPL,FROM,TO,PRINT,FORM_PPL
STDB2B,1,0,,,T,,Purchase,7,,,,
STDB2B,10,0,,,,PR01,,,,,,
STDB2B,20,0,M,1,,PDIP00,,,,,,
STDB2B,20,1,M,1,,PDIQ00,,,,,,
STDB2B,20,2,M,1,,PDIA00,,,,,,
STDB2B,80,0,M,1,,PP00,,,,,,
STDB2B,90,0,,,S,,Purchase Value,10,,,,
STDB2B,100,0,,,B,,Sale,6,,,,
STDB2B,110,0,A,,,BPR00,,,,,,
STDB2B,120,0,A,,,VAPR00,,,,,,
STDB2B,130,0,M,1,,PG00,,,,,,
STDB2B,200,0,,,S,,Gross Value,1,,,a,
STDB2B,210,0,M,1,,DIP20,,,200,,,
STDB2B,210,1,M,1,,DIP10,,,,,,
STDB2B,210,2,M,1,,DIQ00,,,,,,
STDB2B,210,3,M,1,,DIA00,,,,,,
STDB2B,210,4,M,1,,DIW00,,,,,,
STDB2B,300,0,,,S,,Discount Amount,2,201,299,n,
STDB2B,310,0,M,1,,PN00,,,,,,
STDB2B,400,0,,,S,,Net Value for Item,3,,,,
STDB2B,410,0,M,1,,HDIP00,,,,,N,
STDB2B,410,1,M,1,,HDIA00,,,,,N,
STDB2B,410,2,M,1,,FRE00,,,,,N,
STDB2B,420,0,M,1,,ORVA00,,,,,N,
STDB2B,500,0,,,S,,Net Value,4,,,A,
STDB2B,509,0,A,,,ECOFR01,,,,,A,
STDB2B,510,0,A,,,VAT01,,,,,A,
STDB2B,520,0,,,,RND00,,,,,N,
STDB2B,530,0,,,S,,Total,5,,,A,
STDB2B,600,0,,,T,,,,,,,
STDB2B,610,0,,,S,,Margin,8,10,,,MARGINQ
STDB2B,620,0,,,S,,Margin %,9,10,,,MARGINP
STDB2B_WBK,1,0,,,T,,Purchase,7,,,,
STDB2B_WBK,10,0,,,,BPR01,,,,,,
STDB2B_WBK,11,0,,,,PG01,,,,,,
STDB2B_WBK,15,0,,,,VDIP00,,,,,,
STDB2B_WBK,19,0,,,S,,Gross Value,1,,,a,
STDB2B_WBK,20,0,,,,PDIP00,,,,,,
STDB2B_WBK,21,0,,,,PDIA00,,,,,,
STDB2B_WBK,30,0,,,S,,Purchase Price,10,,,a,
STDB2B_WBK,90,0,,,T,,,,,,,
STDB2B_WBK,100,0,,,B,,Sale,6,,,,
STDB2B_WBK,110,0,A,,,BPR00,,,,,,
STDB2B_WBK,120,0,A,,,VAPR00,,,,,,
STDB2B_WBK,125,0,,,S,,Sales Price,30,,,a,
STDB2B_WBK,130,0,,,,PG00,,,,,,
STDB2B_WBK,140,0,,,,DIP00,,,,,,
STDB2B_WBK,200,0,,,S,,Gross Value,1,,,a,
STDB2B_WBK,210,0,,,,DIP10,,,200,,,
STDB2B_WBK,210,1,,,,DIP20,,,,,,
STDB2B_WBK,210,2,,,,DIA00,,,,,,
STDB2B_WBK,210,3,,,,DIA01,,,,,,
STDB2B_WBK,300,0,,,S,,Discount Amount,2,201,299,n,
STDB2B_WBK,400,0,,,S,,Net Value for Item,3,,,,
STDB2B_WBK,410,0,,,,HDIP00,,,,,N,
STDB2B_WBK,410,1,,,,HDIP01,,,,,N,
STDB2B_WBK,410,2,,,,HDIA00,,,,,N,
STDB2B_WBK,410,3,,,,HDIA01,,,,,N,
STDB2B_WBK,500,0,,,S,,Net Value,4,,,A,
STDB2B_WBK,509,0,A,,,ECOFR01,,,,,A,
STDB2B_WBK,510,0,A,,,VAT01,,,,,A,
STDB2B_WBK,530,0,,,S,,Total,5,,,A,
STDB2B_WBK,600,0,,,T,,,,,,,
STDB2B_WBK,610,0,,,S,,Margin,8,30,,,MARGINQ
STDB2B_WBK,620,0,,,S,,Margin %,9,30,,,MARGINP
STDB2B_SEDUS,1,0,,,T,,Purchase,7,,,,
STDB2B_SEDUS,10,0,,,,BPR01,,,,,,
STDB2B_SEDUS,20,0,,,S,,Purchase Price,10,,,a,
STDB2B_SEDUS,100,0,,,B,,Sale,6,,,,
STDB2B_SEDUS,110,0,A,,,BPR00,,,,,,
STDB2B_SEDUS,120,0,A,,,VAPR00,,,,,,
STDB2B_SEDUS,125,0,,,S,,Sales Price,30,,,a,
STDB2B_SEDUS,130,0,,,T,,Man Variant Price,19,,,,
STDB2B_SEDUS,140,0,,,,SVAPR01,,,,,,
STDB2B_SEDUS,140,1,,,,SVAPR02,,,,,,
STDB2B_SEDUS,140,2,,,,SVAPR03,,,,,,
STDB2B_SEDUS,140,3,,,,SVAPR04,,,,,,
STDB2B_SEDUS,140,4,,,,SVAPR05,,,,,,
STDB2B_SEDUS,140,5,,,,SVAPR06,,,,,,
STDB2B_SEDUS,140,6,,,,SVAPR07,,,,,,
STDB2B_SEDUS,140,7,,,,SVAPR08,,,,,,
STDB2B_SEDUS,140,8,,,,SVAPR09,,,,,,
STDB2B_SEDUS,140,9,,,,SVAPR10,,,,,,
STDB2B_SEDUS,150,0,,,,PG00,,,,,,
STDB2B_SEDUS,200,0,,,S,,Gross Value,21,,,,
STDB2B_SEDUS,300,0,,,T,,Price adjustment,22,,,,
STDB2B_SEDUS,310,0,,,,SDIZMTZ01,,,300,,,
STDB2B_SEDUS,310,1,,,,SDIZMTZ02,,,300,,,
STDB2B_SEDUS,310,2,,,,SDIZMTZ03,,,300,,,
STDB2B_SEDUS,310,3,,,,SDIZMTZ04,,,300,,,
STDB2B_SEDUS,310,4,,,,SDIZMTZ05,,,300,,,
STDB2B_SEDUS,310,5,,,,SDIZMTZ06,,,300,,,
STDB2B_SEDUS,310,6,,,,SDIZMTZ07,,,300,,,
STDB2B_SEDUS,310,7,,,,SDIZMTZ08,,,300,,,
STDB2B_SEDUS,310,8,,,,SDIZMTZ09,,,300,,,
STDB2B_SEDUS,310,9,,,,SDIZMTZ10,,,300,,,
STDB2B_SEDUS,400,0,,,S,,Gross Value,1,,,,
STDB2B_SEDUS,410,0,,,,SDIP00,,,400,,,
STDB2B_SEDUS,410,1,,,,SDIP01,,,,,,
STDB2B_SEDUS,410,2,,,,SDIP02,,,,,,
STDB2B_SEDUS,500,0,,,S,,Discount Amount,2,401,499,n,
STDB2B_SEDUS,550,0,,,,SNP01,,,,,n,
STDB2B_SEDUS,560,0,,,S,,Subtotal Net Value,23,,,,
STDB2B_SEDUS,570,0,,,,SDPO01,,,560,,,
STDB2B_SEDUS,570,1,,,,SDPO02,,,560,,,
STDB2B_SEDUS,570,2,,,,SDPO03,,,560,,,
STDB2B_SEDUS,570,3,,,,SDPO04,,,,,,
STDB2B_SEDUS,570,4,,,,SDPO05,,,,,,
STDB2B_SEDUS,570,5,,,,SDPO06,,,,,,
STDB2B_SEDUS,600,0,,,S,,Net Value for Item,3,,,,
STDB2B_SEDUS,610,0,,,,SHECP00,,,600,,N,
STDB2B_SEDUS,610,1,,,,SHECP01,,,600,,N,
STDB2B_SEDUS,610,2,,,,SHECP02,,,600,,N,
STDB2B_SEDUS,610,3,,,,SHECP03,,,600,,N,
STDB2B_SEDUS,620,0,,,,SHECA00,,,,,N,
STDB2B_SEDUS,620,1,,,,SHECA01,,,,,N,
STDB2B_SEDUS,620,2,,,,SHECA02,,,,,N,
STDB2B_SEDUS,620,3,,,,SHECA03,,,,,N,
STDB2B_SEDUS,630,0,,,,SHDIP00,,,600,,N,
STDB2B_SEDUS,630,1,,,,SHDIP01,,,600,,N,
STDB2B_SEDUS,640,0,,,,SHDIA00,,,,,N,
STDB2B_SEDUS,640,1,,,,SHDIA01,,,,,,
STDB2B_SEDUS,700,0,,,S,,Net Value,4,,,A,
STDB2B_SEDUS,709,0,A,,,ECOFR01,,,,,A,
STDB2B_SEDUS,710,0,A,,,VAT01,,,,,A,
STDB2B_SEDUS,720,0,,,,RND00,,,,,N,
STDB2B_SEDUS,730,0,,,S,,Total,5,,,A,
STDB2B_ASSMANN,1,0,,,T,,Purchase,7,,,,
STDB2B_ASSMANN,10,0,,,,BPR01,,,,,,
STDB2B_ASSMANN,30,0,,,S,,Purchase Price,10,,,a,
STDB2B_ASSMANN,100,0,,,B,,Sale,6,,,,
STDB2B_ASSMANN,110,0,A,,,BPR00,,,,,,
STDB2B_ASSMANN,120,0,A,,,VAPR00,,,,,,
STDB2B_ASSMANN,130,0,,,,PG00,,,,,,
STDB2B_ASSMANN,200,0,,,S,,Gross Value,1,,,a,
STDB2B_ASSMANN,210,0,,,,ASDIP01,,,200,,,
STDB2B_ASSMANN,210,1,,,,ASDIP00,,,,,,
STDB2B_ASSMANN,300,0,,,S,,Discount Amount,2,201,299,n,
STDB2B_ASSMANN,400,0,,,S,,Net Value for Item,3,,,,
STDB2B_ASSMANN,500,0,,,S,,Net Value,4,,,A,
STDB2B_ASSMANN,509,0,A,,,ECOFR01,,,,,A,
STDB2B_ASSMANN,510,0,A,,,VAT01,,,,,A,
STDB2B_ASSMANN,520,0,,,,RND00,,,,,N,
STDB2B_ASSMANN,530,0,,,S,,Total,5,,,A,
STDB2B_HAWORTH,1,0,,,T,,Purchase,7,,,,
STDB2B_HAWORTH,10,0,,,,BPR01,,,,,,
STDB2B_HAWORTH,11,0,,,,PG01,,,,,,
STDB2B_HAWORTH,15,0,,,,VDIP00,,,,,,
STDB2B_HAWORTH,19,0,,,S,,Gross Value,1,,,a,
STDB2B_HAWORTH,20,0,,,,PDIP00,,,,,,
STDB2B_HAWORTH,21,0,,,,PDIA00,,,,,,
STDB2B_HAWORTH,30,0,,,S,,Purchase Price,10,,,a,
STDB2B_HAWORTH,90,0,,,T,,,,,,,
STDB2B_HAWORTH,100,0,,,B,,Sale,6,,,,
STDB2B_HAWORTH,110,0,A,,,BPR00,,,,,,
STDB2B_HAWORTH,120,0,A,,,VAPR00,,,,,,
STDB2B_HAWORTH,125,0,,,S,,Sales Price,30,,,a,
STDB2B_HAWORTH,130,0,,,,PG00,,,,,,
STDB2B_HAWORTH,140,0,,,,DIP00,,,,,,
STDB2B_HAWORTH,200,0,,,S,,Gross Value,1,,,a,
STDB2B_HAWORTH,210,0,,,,DIP10,,,200,,,
STDB2B_HAWORTH,210,1,,,,DIP20,,,,,,
STDB2B_HAWORTH,210,2,,,,DIA00,,,,,,
STDB2B_HAWORTH,210,3,,,,DIA01,,,,,,
STDB2B_HAWORTH,300,0,,,S,,Discount Amount,2,201,299,n,
STDB2B_HAWORTH,400,0,,,S,,Net Value for Item,3,,,,
STDB2B_HAWORTH,410,0,,,,HWHDIP00,,,200,,N,
STDB2B_HAWORTH,410,1,,,,HWHDIP01,,,200,,N,
STDB2B_HAWORTH,410,2,,,,HWHDIP02,,,400,,N,
STDB2B_HAWORTH,410,3,,,,HWHDIP03,,,400,,N,
STDB2B_HAWORTH,410,4,,,,HWHDIA00,,,,,N,
STDB2B_HAWORTH,410,5,,,,HWHDIA01,,,,,N,
STDB2B_HAWORTH,500,0,,,S,,Net Value,4,,,A,
STDB2B_HAWORTH,509,0,A,,,ECOFR01,,,,,A,
STDB2B_HAWORTH,510,0,A,,,VAT01,,,,,A,
STDB2B_HAWORTH,530,0,,,S,,Total,5,,,A,
STDB2B_HAWORTH,600,0,,,T,,,,,,,
STDB2B_HAWORTH,610,0,,,S,,Margin,8,30,,,MARGINQ
STDB2B_HAWORTH,620,0,,,S,,Margin %,9,30,,,MARGINP
STDB2B_HAWORTHXXL,100,0,A,,,PR00,,,,,,
STDB2B_HAWORTHXXL,110,0,,,S,,Sales Price,,,,,
STDB2B_HAWORTHXXL,200,0,,,,HWXXLDIP01,,,110,,,
STDB2B_HAWORTHXXL,250,0,,,S,,Net Value,,,,,
STDB2B_HAWORTHXXL,300,0,,,,HWXXLADIP01,,,110,,,
STDB2B_HAWORTHXXL,300,1,,,,HWXXLADIP02,,,110,,,
STDB2B_HAWORTHXXL,400,0,,,S,,Net Value for Item,3,,,,
STDB2B_HAWORTHINT,1,0,,,T,,Purchase,7,,,,
STDB2B_HAWORTHINT,10,0,,,,BPR01,,,,,,
STDB2B_HAWORTHINT,13,0,,,,HSD01,,,,,,
STDB2B_HAWORTHINT,14,0,,,S,,EK Value 1,56,,,a,
STDB2B_HAWORTHINT,15,0,,,,HSDC01,,,14,,,
STDB2B_HAWORTHINT,16,0,,,,HSDC02,,,14,,,
STDB2B_HAWORTHINT,17,0,,,S,,EK Value 2,57,,,a,
STDB2B_HAWORTHINT,18,0,,,,HSDC03,,,,,,
STDB2B_HAWORTHINT,19,0,,,S,,Gross Value,1,,,a,
STDB2B_HAWORTHINT,20,0,,,,PDIP00,,,,,,
STDB2B_HAWORTHINT,21,0,,,,PDIA00,,,,,,
STDB2B_HAWORTHINT,30,0,,,S,,Purchase Price,10,,,a,
STDB2B_HAWORTHINT,90,0,,,T,,,,,,,
STDB2B_HAWORTHINT,100,0,,,B,,Sale,6,,,,
STDB2B_HAWORTHINT,110,0,A,,,BPR00,,,,,,
STDB2B_HAWORTHINT,120,0,A,,,VAPR00,,,,,,
STDB2B_HAWORTHINT,125,0,,,S,,Sales Price,30,,,a,
STDB2B_HAWORTHINT,130,0,,,,PG00,,,,,,
STDB2B_HAWORTHINT,140,0,,,,DIP00,,,,,,
STDB2B_HAWORTHINT,150,0,,,,HSD02,,,,,,
STDB2B_HAWORTHINT,200,0,,,S,,Gross Value,1,,,a,
STDB2B_HAWORTHINT,210,0,,,,DIP10,,,200,,,
STDB2B_HAWORTHINT,210,1,,,,DIP20,,,,,,
STDB2B_HAWORTHINT,210,2,,,,DIA00,,,,,,
STDB2B_HAWORTHINT,210,3,,,,DIA01,,,,,,
STDB2B_HAWORTHINT,300,0,,,S,,Discount Amount,2,201,299,n,
STDB2B_HAWORTHINT,400,0,,,S,,Net Value for Item,3,,,,
STDB2B_HAWORTHINT,410,0,,,,HWHDIP00,,,200,,N,
STDB2B_HAWORTHINT,410,1,,,,HWHDIP01,,,200,,N,
STDB2B_HAWORTHINT,410,2,,,,HWHDIP02,,,400,,N,
STDB2B_HAWORTHINT,410,3,,,,HWHDIP03,,,400,,N,
STDB2B_HAWORTHINT,410,4,,,,HWHDIA00,,,,,N,
STDB2B_HAWORTHINT,410,5,,,,HWHDIA01,,,,,N,
STDB2B_HAWORTHINT,500,0,,,S,,Net Value,4,,,A,
STDB2B_HAWORTHINT,501,0,,,,HSD03,,,125,,,
STDB2B_HAWORTHINT,502,0,,,,HSD04,,,125,,,
STDB2B_HAWORTHINT,503,0,,,S,,Net Value Incl,52,,,A,
STDB2B_HAWORTHINT,509,0,A,,,ECOFR01,,,,,A,
STDB2B_HAWORTHINT,510,0,A,,,VAT01,,,,,A,
STDB2B_HAWORTHINT,530,0,,,S,,Total,5,,,A,
STDB2B_HAWORTHINT,600,0,,,T,,,,,,,
STDB2B_HAWORTHINT,610,0,,,S,,Margin,8,30,,,MARGINQ
STDB2B_HAWORTHINT,620,0,,,S,,Margin %,9,30,,,MARGINP
STDB2B_SEDUS_2,1,0,,,T,,Purchase,7,,,,
STDB2B_SEDUS_2,10,0,,,,BPR01,,,,,,
STDB2B_SEDUS_2,20,0,,,S,,Purchase Price,10,,,a,
STDB2B_SEDUS_2,100,0,,,B,,Sale,6,,,,
STDB2B_SEDUS_2,110,0,A,,,BPR00,,,,,,
STDB2B_SEDUS_2,120,0,A,,,VAPR00,,,,,,
STDB2B_SEDUS_2,125,0,,,S,,Sales Price,30,,,a,
STDB2B_SEDUS_2,130,0,,,T,,Man Variant Price,19,,,,
STDB2B_SEDUS_2,140,0,,,,SVAPR11,,,,,,
STDB2B_SEDUS_2,140,1,,,,SVAPR12,,,,,,
STDB2B_SEDUS_2,140,2,,,,SVAPR13,,,,,,
STDB2B_SEDUS_2,140,3,,,,SVAPR14,,,,,,
STDB2B_SEDUS_2,140,4,,,,SVAPR15,,,,,,
STDB2B_SEDUS_2,150,0,,,,PG00,,,,,,
STDB2B_SEDUS_2,200,0,,,S,,Gross Value,21,,,,
STDB2B_SEDUS_2,300,0,,,T,,Price adjustment,22,,,,
STDB2B_SEDUS_2,310,0,,,,SDIZMTZ11,,,300,,,
STDB2B_SEDUS_2,310,1,,,,SDIZMTZ12,,,300,,,
STDB2B_SEDUS_2,310,2,,,,SDIZMTZ13,,,300,,,
STDB2B_SEDUS_2,310,3,,,,SDIZMTZ14,,,300,,,
STDB2B_SEDUS_2,310,4,,,,SDIZMTZ15,,,300,,,
STDB2B_SEDUS_2,400,0,,,S,,Gross Value,1,,,,
STDB2B_SEDUS_2,410,0,,,,SDIP00,,,400,,,
STDB2B_SEDUS_2,410,1,,,,SDIP01,,,,,,
STDB2B_SEDUS_2,410,2,,,,SDIP02,,,,,,
STDB2B_SEDUS_2,500,0,,,S,,Discount Amount,2,401,499,n,
STDB2B_SEDUS_2,550,0,,,,SNP01,,,,,n,
STDB2B_SEDUS_2,560,0,,,S,,Subtotal Net Value,23,,,,
STDB2B_SEDUS_2,570,0,,,,SDPO01,,,560,,,
STDB2B_SEDUS_2,570,1,,,,SDPO02,,,560,,,
STDB2B_SEDUS_2,570,2,,,,SDPO03,,,560,,,
STDB2B_SEDUS_2,570,3,,,,SDPO04,,,,,,
STDB2B_SEDUS_2,570,4,,,,SDPO05,,,,,,
STDB2B_SEDUS_2,570,5,,,,SDPO06,,,,,,
STDB2B_SEDUS_2,600,0,,,S,,Net Value for Item,3,,,,
STDB2B_SEDUS_2,610,0,,,,SHECP00,,,600,,N,
STDB2B_SEDUS_2,610,1,,,,SHECP01,,,600,,N,
STDB2B_SEDUS_2,610,2,,,,SHECP02,,,600,,N,
STDB2B_SEDUS_2,610,3,,,,SHECP03,,,600,,N,
STDB2B_SEDUS_2,620,0,,,,SHECA00,,,,,N,
STDB2B_SEDUS_2,620,1,,,,SHECA01,,,,,N,
STDB2B_SEDUS_2,620,2,,,,SHECA02,,,,,N,
STDB2B_SEDUS_2,620,3,,,,SHECA03,,,,,N,
STDB2B_SEDUS_2,630,0,,,,SHDIP00,,,600,,N,
STDB2B_SEDUS_2,630,1,,,,SHDIP01,,,600,,N,
STDB2B_SEDUS_2,640,0,,,,SHDIA00,,,,,N,
STDB2B_SEDUS_2,640,1,,,,SHDIA01,,,,,,
STDB2B_SEDUS_2,700,0,,,S,,Net Value,4,,,A,
STDB2B_SEDUS_2,709,0,A,,,ECOFR01,,,,,A,
STDB2B_SEDUS_2,710,0,A,,,VAT01,,,,,A,
STDB2B_SEDUS_2,720,0,,,,RND00,,,,,N,
STDB2B_SEDUS_2,730,0,,,S,,Total,5,,,A,